{
  "files": {
    "main.css": "/static/css/main.ff8603f4.css",
    "main.js": "/static/js/main.0c6f6dbf.js",
    "static/media/detailsWallpaper.jpg": "/static/media/detailsWallpaper.f45a6745747015853245.jpg",
    "static/media/loginWallpaper.jpg": "/static/media/loginWallpaper.82e217484b39129e64a1.jpg",
    "index.html": "/index.html",
    "static/media/chechmark.svg": "/static/media/chechmark.7b9b18b79eb8a0df5f1e.svg",
    "main.ff8603f4.css.map": "/static/css/main.ff8603f4.css.map",
    "main.0c6f6dbf.js.map": "/static/js/main.0c6f6dbf.js.map"
  },
  "entrypoints": [
    "static/css/main.ff8603f4.css",
    "static/js/main.0c6f6dbf.js"
  ]
}